module gitlab.com/labsprout/lab

go 1.14

require (
	github.com/cucumber/godog v0.9.0
	github.com/cucumber/messages-go/v10 v10.0.3
	github.com/golang/protobuf v1.4.0 // indirect
	github.com/hashicorp/go-retryablehttp v0.6.6 // indirect
	github.com/xanzy/go-gitlab v0.31.0
	golang.org/x/net v0.0.0-20200324143707-d3edc9973b7e // indirect
	golang.org/x/oauth2 v0.0.0-20200107190931-bf48bf16ab8d // indirect
	golang.org/x/time v0.0.0-20200416051211-89c76fbcd5d1 // indirect
	google.golang.org/appengine v1.6.5 // indirect
)
